




## TODOs #################################################################

* 묶음 실행?


* sql 실행 내역을 캐슁?



* 작성한 양식들에 대해서 별도로 문서화해서 나중에 다시 개선/수정이 가능하도록.


* README 작성하기
	- apache velocity 문법에 대해서 이해하기.
	- 새로운 쿼리와 템플릿을 추가하기.
	- 기본 설정 파일들 소개와 필요한 내용들.
	- 빌드하기, 프로젝트 세팅하기, 패키징하기.
	
	

## DONEs #################################################################



* 타이밍 재기 (시작 시각, 종료 시각, 개별 타이밍 - SQL_FETCH, FILE_WRITING...)

* SQL 한번에 로딩하지 않고, 계속해서 필요할때마다 로딩하도록 변경하기.

* SQL 커서를 통해서 전체 몇행인지 알아내기.



