#foreach( $r in $resultSet )
#{if}($r['FREE_DELIV_YN'] eq 'Y')#{set}($deliv='2500')#{else}#{set}($deliv='0')#{end}<<<begin>>>
<<<mapid>>>$!{r["PROD_ID"]}
<<<pname>>>$!{r["PROD_NM"]}
<<<price>>>$!{r["EVENT_PRICE"]}
<<<pgurl>>>$!{r["PROD_URL"]}&partnership=0801001
<<<igurl>>>$!{r["IMG_1ST"]}
<<<cate1>>>$!{r["LARGE_NM"]}
<<<cate2>>>$!{r["MEDIUM_NM"]}
<<<cate3>>>$!{r["SMALL_NM"]}
<<<cate4>>>
<<<caid1>>>$!{r["LARGE_CD"]}
<<<caid2>>>$!{r["MEDIUM_CD"]}
<<<caid3>>>$!{r["SMALL_CD"]}
<<<caid4>>>
<<<model>>>
<<<brand>>>$!{r["BRAND_NM"]}
<<<maker>>>$!{r["MANUF_NM"]}
<<<origi>>>
<<<deliv>>>$!{deliv}
<<<event>>>
<<<coupo>>>
<<<pcard>>>$!{r["CARDINFO"]}
<<<point>>>
<<<score>>>
<<<mvurl>>>
<<<selid>>>
<<<class>>>I
<<<utime>>>$!{r["UPD_DT_1"]}
<<<cardn>>>$!{r["CARD_NM"]}
<<<cardp>>>$!{r["DIS_AMT"]}
<<<ftend>>>
#end